Kobe Bryant Shot Chart
…
## # A tibble: 1 x 1
##   total_points_away
##               <dbl>
## 1             12445

Kobe Bryants performance against every team

We can also look at Kobes performance against every team.

#Total number of games per team
player_shot_chart %>%
  group_by(opponent) %>% 
  summarise(total_games_team = n_distinct(game_id)) 

## # A tibble: 33 x 2
##    opponent total_games_team
##    <fct>               <int>
##  1 ATL                    29
##  2 BKN                     3
##  3 BOS                    44
##  4 CHA                    31
##  5 CHI                    31
##  6 CLE                    34
##  7 DAL                    64
##  8 DEN                    83
##  9 DET                    38
## 10 GSW                    67
## # ... with 23 more rows

#Total number of shots per team
player_shot_chart %>%
  group_by(opponent) %>%
  summarise(total_shots_team = n())

## # A tibble: 33 x 2
##    opponent total_shots_team
##    <fct>               <int>
##  1 ATL                   438
##  2 BKN                    45
##  3 BOS                   783
##  4 CHA                   500
##  5 CHI                   516
##  6 CLE                   514
##  7 DAL                  1033
##  8 DEN                  1352
##  9 DET                   587
## 10 GSW                  1143
## # ... with 23 more rows

#Average shots per team
player_shot_chart %>% 
  group_by(opponent,game_id) %>%
  summarise(shot_number = n()) %>%
  summarise(average_shot = mean(shot_number)) %>% 
  arrange(desc(average_shot))

## # A tibble: 33 x 2
##    opponent average_shot
##    <fct>           <dbl>
##  1 HOU              18.2
##  2 SAS              18  
##  3 NOP              17.9
##  4 BOS              17.8
##  5 MEM              17.8
##  6 ORL              17.8
##  7 PHX              17.6
##  8 SAC              17.5
##  9 GSW              17.1
## 10 OKC              17  
## # ... with 23 more rows

#Average point per team 
player_shot_chart %>%
  group_by(opponent,game_id)%>%
  filter(shot_made_flag == 1) %>% 
  summarise(average_point_t = sum(points)) %>%
  summarise(average_point_team = mean(average_point_t)) %>%
  arrange(desc(average_point_team))

## # A tibble: 33 x 2
##    opponent average_point_team
##    <fct>                 <dbl>
##  1 NYK                    18.9
##  2 PHX                    17.9
##  3 SAC                    17.6
##  4 MEM                    17.4
##  5 GSW                    17.4
##  6 SAS                    16.9
##  7 HOU                    16.9
##  8 TOR                    16.8
##  9 NOP                    16.4
## 10 ORL                    16.4
## # ... with 23 more rows

#Field goal percentage per team 
player_shot_chart %>% 
  group_by(opponent) %>%
  summarise(n = n(), made_shots = sum(shot_made_flag)) %>%
  mutate(percentage = made_shots / n) %>%
  select(opponent, percentage)

## # A tibble: 33 x 2
##    opponent percentage
##    <fct>         <dbl>
##  1 ATL           0.452
##  2 BKN           0.4  
##  3 BOS           0.411
##  4 CHA           0.436
##  5 CHI           0.430
##  6 CLE           0.440
##  7 DAL           0.454
##  8 DEN           0.458
##  9 DET           0.441
## 10 GSW           0.465
## # ... with 23 more rows

#Total points per team 
player_shot_chart %>%
  group_by(opponent,game_id)%>%
  filter(shot_made_flag == 1) %>% 
  summarise(average_point_t = sum(points)) %>%
  summarise(total_point_team = sum(average_point_t)) %>%
  arrange(desc(total_point_team)) 

## # A tibble: 33 x 2
##    opponent total_point_team
##    <fct>               <dbl>
##  1 PHX                  1541
##  2 SAS                  1520
##  3 SAC                  1389
##  4 DEN                  1333
##  5 HOU                  1300
##  6 POR                  1300
##  7 UTA                  1188
##  8 MIN                  1175
##  9 GSW                  1148
## 10 LAC                  1063
## # ... with 23 more rows
…
